{
  "annotations": {
    "changelogDate": "20240618002806"
  },
  "clientRootFolder": "hateoas",
  "databaseType": "sql",
  "entityTableName": "customer_order",
  "fields": [
    {
      "fieldName": "description",
      "fieldType": "String"
    },
    {
      "fieldName": "status",
      "fieldType": "Status",
      "fieldValues": "IN_PROGRESS,COMPLETED,CANCELLED"
    }
  ],
  "microserviceName": "hateoas",
  "name": "Order",
  "pagination": "no",
  "readOnly": false,
  "relationships": [],
  "searchEngine": "no",
  "service": "no"
}
